jobID,  modelID,  status,  completionReason,  startTime,  endTime,  runtime(s),  expDesc,  numRecords,  modelParams|clParams|alpha,  modelParams|tpParams|minThreshold,  modelParams|tpParams|activationThreshold,  modelParams|tpParams|pamLength,  modelParams|sensorParams|encoders|sine:n,  modelParams|spParams|synPermInactiveDec,  multiStepBestPredictions:multiStep:errorMetric='aae':steps=[1]:window=1000:field=sine,  multiStepBestPredictions:multiStep:errorMetric='altMAPE':steps=[1]:window=1000:field=sine, 
1059,  6398,  completed,  eof,  2015-04-09 08:32:49,  2015-04-09 08:33:22,  33,  modelParams|clParams|alpha_0.05005.modelParams|tpParams|minThreshold_11.modelParams|tpParams|activationThreshold_14.modelParams|tpParams|pamLength_3.modelParams|sensorParams|encoders|sine:n_272.modelParams|spParams|synPermInactiveDec_0.05015,  3000,  0.05005,  11,  14,  3,  272,  0.05015,  0.007630633006,  0.399670504876, 
1059,  6403,  completed,  eof,  2015-04-09 08:32:49,  2015-04-09 08:33:26,  37,  modelParams|clParams|alpha_0.0001.modelParams|tpParams|minThreshold_9.modelParams|tpParams|activationThreshold_12.modelParams|tpParams|pamLength_1.modelParams|sensorParams|encoders|sine:n_22.modelParams|spParams|synPermInactiveDec_0.1,  3000,  0.0001,  9,  12,  1,  22,  0.1,  0.156694441485,  8.20720200935, 
1059,  6414,  completed,  eof,  2015-04-09 08:32:49,  2015-04-09 08:33:28,  39,  modelParams|clParams|alpha_0.1.modelParams|tpParams|minThreshold_12.modelParams|tpParams|activationThreshold_16.modelParams|tpParams|pamLength_5.modelParams|sensorParams|encoders|sine:n_521.modelParams|spParams|synPermInactiveDec_0.0003,  3000,  0.1,  12,  16,  5,  521,  0.0003,  0.033847675696,  1.77284343562, 
1059,  6450,  completed,  eof,  2015-04-09 08:32:50,  2015-04-09 08:33:27,  37,  modelParams|clParams|alpha_0.025075.modelParams|tpParams|minThreshold_10.modelParams|tpParams|activationThreshold_13.modelParams|tpParams|pamLength_2.modelParams|sensorParams|encoders|sine:n_147.modelParams|spParams|synPermInactiveDec_0.075075,  3000,  0.025075,  10,  13,  2,  147,  0.075075,  0.0426362639789,  2.23316429149, 
1059,  6452,  completed,  eof,  2015-04-09 08:32:50,  2015-04-09 08:33:22,  32,  modelParams|clParams|alpha_0.075025.modelParams|tpParams|minThreshold_11.modelParams|tpParams|activationThreshold_15.modelParams|tpParams|pamLength_4.modelParams|sensorParams|encoders|sine:n_396.modelParams|spParams|synPermInactiveDec_0.025225,  3000,  0.075025,  11,  15,  4,  396,  0.025225,  0.00539256113304,  0.282446768036, 
1059,  6473,  completed,  eof,  2015-04-09 08:33:22,  2015-04-09 08:33:56,  34,  modelParams|clParams|alpha_0.055045.modelParams|tpParams|minThreshold_11.modelParams|tpParams|activationThreshold_14.modelParams|tpParams|pamLength_3.modelParams|sensorParams|encoders|sine:n_296.modelParams|spParams|synPermInactiveDec_0.055135,  3000,  0.055045,  11,  14,  3,  296,  0.055135,  0.00954735169559,  0.500062690659, 
1059,  6474,  completed,  eof,  2015-04-09 08:33:23,  2015-04-09 08:33:56,  33,  modelParams|clParams|alpha_0.07003.modelParams|tpParams|minThreshold_10.modelParams|tpParams|activationThreshold_15.modelParams|tpParams|pamLength_4.modelParams|sensorParams|encoders|sine:n_421.modelParams|spParams|synPermInactiveDec_0.03021,  3000,  0.07003,  10,  15,  4,  421,  0.03021,  0.00255285760051,  0.133711303541, 
1059,  6475,  completed,  eof,  2015-04-09 08:33:26,  2015-04-09 08:33:57,  31,  modelParams|clParams|alpha_0.055794572334.modelParams|tpParams|minThreshold_11.modelParams|tpParams|activationThreshold_15.modelParams|tpParams|pamLength_3.modelParams|sensorParams|encoders|sine:n_301.modelParams|spParams|synPermInactiveDec_0.0300498233328,  3000,  0.055794572334,  11,  15,  3,  301,  0.0300498233328,  0.00501307330417,  0.262570292253, 
1059,  6486,  completed,  eof,  2015-04-09 08:33:27,  2015-04-09 08:34:01,  34,  modelParams|clParams|alpha_0.0605397148893.modelParams|tpParams|minThreshold_11.modelParams|tpParams|activationThreshold_15.modelParams|tpParams|pamLength_4.modelParams|sensorParams|encoders|sine:n_324.modelParams|spParams|synPermInactiveDec_0.0201332155552,  3000,  0.0605397148893,  11,  15,  4,  324,  0.0201332155552,  0.0033600322641,  0.175988779743, 
1059,  6487,  completed,  eof,  2015-04-09 08:33:29,  2015-04-09 08:34:04,  35,  modelParams|clParams|alpha_0.0747751425553.modelParams|tpParams|minThreshold_11.modelParams|tpParams|activationThreshold_15.modelParams|tpParams|pamLength_4.modelParams|sensorParams|encoders|sine:n_444.modelParams|spParams|synPermInactiveDec_0.0302633922224,  3000,  0.0747751425553,  11,  15,  4,  444,  0.0302633922224,  0.00226271574719,  0.118514511753, 
1059,  6488,  completed,  eof,  2015-04-09 08:33:56,  2015-04-09 08:34:27,  31,  modelParams|clParams|alpha_0.0711592422699.modelParams|tpParams|minThreshold_11.modelParams|tpParams|activationThreshold_15.modelParams|tpParams|pamLength_4.modelParams|sensorParams|encoders|sine:n_378.modelParams|spParams|synPermInactiveDec_0.0253011883027,  3000,  0.0711592422699,  11,  15,  4,  378,  0.0253011883027,  0.00600408291972,  0.314476511969, 
1059,  6489,  completed,  eof,  2015-04-09 08:33:56,  2015-04-09 08:34:30,  34,  modelParams|clParams|alpha_0.06878125.modelParams|tpParams|minThreshold_10.modelParams|tpParams|activationThreshold_15.modelParams|tpParams|pamLength_4.modelParams|sensorParams|encoders|sine:n_427.modelParams|spParams|synPermInactiveDec_0.03145625,  3000,  0.06878125,  10,  15,  4,  427,  0.03145625,  0.00539523137572,  0.282586627631, 
1059,  6490,  completed,  eof,  2015-04-09 08:33:57,  2015-04-09 08:34:29,  32,  modelParams|clParams|alpha_0.081248973069.modelParams|tpParams|minThreshold_11.modelParams|tpParams|activationThreshold_16.modelParams|tpParams|pamLength_5.modelParams|sensorParams|encoders|sine:n_468.modelParams|spParams|synPermInactiveDec_0.0127227989501,  3000,  0.081248973069,  11,  16,  5,  468,  0.0127227989501,  0.00770870106802,  0.403759484354, 
1059,  6491,  completed,  eof,  2015-04-09 08:34:01,  2015-04-09 08:34:34,  33,  modelParams|clParams|alpha_0.0770930653794.modelParams|tpParams|minThreshold_10.modelParams|tpParams|activationThreshold_16.modelParams|tpParams|pamLength_4.modelParams|sensorParams|encoders|sine:n_447.modelParams|spParams|synPermInactiveDec_0.0164961395223,  3000,  0.0770930653794,  10,  16,  4,  447,  0.0164961395223,  0.0029185744053,  0.15286649288, 
1059,  6492,  completed,  eof,  2015-04-09 08:34:04,  2015-04-09 08:34:37,  33,  modelParams|clParams|alpha_0.0684689281942.modelParams|tpParams|minThreshold_11.modelParams|tpParams|activationThreshold_14.modelParams|tpParams|pamLength_4.modelParams|sensorParams|encoders|sine:n_425.modelParams|spParams|synPermInactiveDec_0.037754240278,  3000,  0.0684689281942,  11,  14,  4,  425,  0.037754240278,  0.00591219382979,  0.309663626991, 
1059,  6493,  completed,  killed,  2015-04-09 08:34:27,  2015-04-09 08:34:38,  11,  modelParams|clParams|alpha_0.0781166976245.modelParams|tpParams|minThreshold_11.modelParams|tpParams|activationThreshold_16.modelParams|tpParams|pamLength_4.modelParams|sensorParams|encoders|sine:n_452.modelParams|spParams|synPermInactiveDec_0.0228155689107,  900,  0.0781166976245,  11,  16,  4,  452,  0.0228155689107,  0.0582548435402,  9.14349032253, 
1059,  6494,  completed,  killed,  2015-04-09 08:34:29,  2015-04-09 08:34:38,  9,  modelParams|clParams|alpha_0.0756502399418.modelParams|tpParams|minThreshold_10.modelParams|tpParams|activationThreshold_15.modelParams|tpParams|pamLength_4.modelParams|sensorParams|encoders|sine:n_450.modelParams|spParams|synPermInactiveDec_0.0298134495275,  500,  0.0756502399418,  10,  15,  4,  450,  0.0298134495275,  0.0749178060401,  11.748390651, 
1059,  6495,  completed,  killed,  2015-04-09 08:34:31,  2015-04-09 08:34:38,  7,  modelParams|clParams|alpha_0.0736537396775.modelParams|tpParams|minThreshold_11.modelParams|tpParams|activationThreshold_15.modelParams|tpParams|pamLength_4.modelParams|sensorParams|encoders|sine:n_441.modelParams|spParams|synPermInactiveDec_0.030295901726,  600,  0.0736537396775,  11,  15,  4,  441,  0.030295901726,  0.0735926694976,  11.5444411956, 
1059,  6496,  completed,  killed,  2015-04-09 08:34:34,  2015-04-09 08:34:38,  4,  modelParams|clParams|alpha_0.0793538755425.modelParams|tpParams|minThreshold_11.modelParams|tpParams|activationThreshold_15.modelParams|tpParams|pamLength_4.modelParams|sensorParams|encoders|sine:n_475.modelParams|spParams|synPermInactiveDec_0.029383614256,  250,  0.0793538755425,  11,  15,  4,  475,  0.029383614256,  0.0720729457831,  11.2796181722, 


jobID,  modelID,  status,  completionReason,  startTime,  endTime,  runtime(s),  expDesc,  numRecords,  modelParams|clParams|alpha,  modelParams|tpParams|minThreshold,  modelParams|tpParams|activationThreshold,  modelParams|tpParams|pamLength,  modelParams|sensorParams|encoders|sine:n,  modelParams|spParams|synPermInactiveDec,  multiStepBestPredictions:multiStep:errorMetric='aae':steps=[1]:window=1000:field=sine,  multiStepBestPredictions:multiStep:errorMetric='altMAPE':steps=[1]:window=1000:field=sine, 
1062,  6735,  completed,  eof,  2015-10-16 10:16:08,  2015-10-16 10:16:41,  33,  modelParams|clParams|alpha_0.05005.modelParams|tpParams|minThreshold_11.modelParams|tpParams|activationThreshold_14.modelParams|tpParams|pamLength_3.modelParams|sensorParams|encoders|sine:n_272.modelParams|spParams|synPermInactiveDec_0.05015,  3000,  0.05005,  11,  14,  3,  272,  0.05015,  0.007630633006,  0.399670504876, 
1062,  6738,  completed,  eof,  2015-10-16 10:16:08,  2015-10-16 10:16:42,  34,  modelParams|clParams|alpha_0.0001.modelParams|tpParams|minThreshold_9.modelParams|tpParams|activationThreshold_12.modelParams|tpParams|pamLength_1.modelParams|sensorParams|encoders|sine:n_22.modelParams|spParams|synPermInactiveDec_0.1,  3000,  0.0001,  9,  12,  1,  22,  0.1,  0.156694441485,  8.20720200935, 
1062,  6746,  completed,  eof,  2015-10-16 10:16:09,  2015-10-16 10:16:46,  37,  modelParams|clParams|alpha_0.1.modelParams|tpParams|minThreshold_12.modelParams|tpParams|activationThreshold_16.modelParams|tpParams|pamLength_5.modelParams|sensorParams|encoders|sine:n_521.modelParams|spParams|synPermInactiveDec_0.0003,  3000,  0.1,  12,  16,  5,  521,  0.0003,  0.033847675696,  1.77284343562, 
1062,  6788,  completed,  eof,  2015-10-16 10:16:09,  2015-10-16 10:16:44,  35,  modelParams|clParams|alpha_0.025075.modelParams|tpParams|minThreshold_10.modelParams|tpParams|activationThreshold_13.modelParams|tpParams|pamLength_2.modelParams|sensorParams|encoders|sine:n_147.modelParams|spParams|synPermInactiveDec_0.075075,  3000,  0.025075,  10,  13,  2,  147,  0.075075,  0.0426362639789,  2.23316429149, 
1062,  6795,  completed,  eof,  2015-10-16 10:16:09,  2015-10-16 10:16:42,  33,  modelParams|clParams|alpha_0.075025.modelParams|tpParams|minThreshold_11.modelParams|tpParams|activationThreshold_15.modelParams|tpParams|pamLength_4.modelParams|sensorParams|encoders|sine:n_396.modelParams|spParams|synPermInactiveDec_0.025225,  3000,  0.075025,  11,  15,  4,  396,  0.025225,  0.00539256113304,  0.282446768036, 
1062,  6820,  completed,  eof,  2015-10-16 10:16:41,  2015-10-16 10:17:14,  33,  modelParams|clParams|alpha_0.055045.modelParams|tpParams|minThreshold_11.modelParams|tpParams|activationThreshold_14.modelParams|tpParams|pamLength_3.modelParams|sensorParams|encoders|sine:n_296.modelParams|spParams|synPermInactiveDec_0.055135,  3000,  0.055045,  11,  14,  3,  296,  0.055135,  0.00954735169559,  0.500062690659, 
1062,  6821,  completed,  eof,  2015-10-16 10:16:42,  2015-10-16 10:17:15,  33,  modelParams|clParams|alpha_0.0355647148893.modelParams|tpParams|minThreshold_11.modelParams|tpParams|activationThreshold_14.modelParams|tpParams|pamLength_2.modelParams|sensorParams|encoders|sine:n_200.modelParams|spParams|synPermInactiveDec_0.0550282155552,  3000,  0.0355647148893,  11,  14,  2,  200,  0.0550282155552,  0.0260329745077,  1.3635319713, 
1062,  6822,  completed,  eof,  2015-10-16 10:16:42,  2015-10-16 10:17:15,  33,  modelParams|clParams|alpha_0.07003.modelParams|tpParams|minThreshold_10.modelParams|tpParams|activationThreshold_15.modelParams|tpParams|pamLength_4.modelParams|sensorParams|encoders|sine:n_421.modelParams|spParams|synPermInactiveDec_0.03021,  3000,  0.07003,  10,  15,  4,  421,  0.03021,  0.00255285760051,  0.133711303541, 
1062,  6823,  completed,  eof,  2015-10-16 10:16:44,  2015-10-16 10:17:16,  32,  modelParams|clParams|alpha_0.0605397148893.modelParams|tpParams|minThreshold_11.modelParams|tpParams|activationThreshold_15.modelParams|tpParams|pamLength_4.modelParams|sensorParams|encoders|sine:n_324.modelParams|spParams|synPermInactiveDec_0.0201332155552,  3000,  0.0605397148893,  11,  15,  4,  324,  0.0201332155552,  0.0033600322641,  0.175988779743, 
1062,  6824,  completed,  eof,  2015-10-16 10:16:46,  2015-10-16 10:17:19,  33,  modelParams|clParams|alpha_0.0747751425553.modelParams|tpParams|minThreshold_11.modelParams|tpParams|activationThreshold_15.modelParams|tpParams|pamLength_4.modelParams|sensorParams|encoders|sine:n_444.modelParams|spParams|synPermInactiveDec_0.0302633922224,  3000,  0.0747751425553,  11,  15,  4,  444,  0.0302633922224,  0.00226271574719,  0.118514511753, 
1062,  6825,  completed,  eof,  2015-10-16 10:17:15,  2015-10-16 10:17:45,  30,  modelParams|clParams|alpha_0.0711592422699.modelParams|tpParams|minThreshold_11.modelParams|tpParams|activationThreshold_15.modelParams|tpParams|pamLength_4.modelParams|sensorParams|encoders|sine:n_378.modelParams|spParams|synPermInactiveDec_0.0253011883027,  3000,  0.0711592422699,  11,  15,  4,  378,  0.0253011883027,  0.00600408291972,  0.314476511969, 
1062,  6826,  completed,  eof,  2015-10-16 10:17:15,  2015-10-16 10:17:46,  31,  modelParams|clParams|alpha_0.076393894313.modelParams|tpParams|minThreshold_11.modelParams|tpParams|activationThreshold_15.modelParams|tpParams|pamLength_5.modelParams|sensorParams|encoders|sine:n_404.modelParams|spParams|synPermInactiveDec_0.0139182119665,  3000,  0.076393894313,  11,  15,  5,  404,  0.0139182119665,  0.00559085164072,  0.292832651784, 
1062,  6827,  completed,  eof,  2015-10-16 10:17:15,  2015-10-16 10:17:48,  33,  modelParams|clParams|alpha_0.06878125.modelParams|tpParams|minThreshold_10.modelParams|tpParams|activationThreshold_15.modelParams|tpParams|pamLength_4.modelParams|sensorParams|encoders|sine:n_427.modelParams|spParams|synPermInactiveDec_0.03145625,  3000,  0.06878125,  10,  15,  4,  427,  0.03145625,  0.00539523137572,  0.282586627631, 
1062,  6828,  completed,  eof,  2015-10-16 10:17:16,  2015-10-16 10:17:50,  34,  modelParams|clParams|alpha_0.0770930653794.modelParams|tpParams|minThreshold_10.modelParams|tpParams|activationThreshold_16.modelParams|tpParams|pamLength_4.modelParams|sensorParams|encoders|sine:n_447.modelParams|spParams|synPermInactiveDec_0.0164961395223,  3000,  0.0770930653794,  10,  16,  4,  447,  0.0164961395223,  0.0029185744053,  0.15286649288, 
1062,  6829,  completed,  eof,  2015-10-16 10:17:19,  2015-10-16 10:17:51,  32,  modelParams|clParams|alpha_0.0684689281942.modelParams|tpParams|minThreshold_11.modelParams|tpParams|activationThreshold_14.modelParams|tpParams|pamLength_4.modelParams|sensorParams|encoders|sine:n_425.modelParams|spParams|synPermInactiveDec_0.037754240278,  3000,  0.0684689281942,  11,  14,  4,  425,  0.037754240278,  0.00591219382979,  0.309663626991, 
1062,  6830,  completed,  killed,  2015-10-16 10:17:46,  2015-10-16 10:17:52,  6,  modelParams|clParams|alpha_0.0781166976245.modelParams|tpParams|minThreshold_11.modelParams|tpParams|activationThreshold_16.modelParams|tpParams|pamLength_4.modelParams|sensorParams|encoders|sine:n_452.modelParams|spParams|synPermInactiveDec_0.0228155689107,  400,  0.0781166976245,  11,  16,  4,  452,  0.0228155689107,  0.0750636773865,  11.76536834, 
1062,  6831,  completed,  killed,  2015-10-16 10:17:46,  2015-10-16 10:17:52,  6,  modelParams|clParams|alpha_0.0852899932812.modelParams|tpParams|minThreshold_12.modelParams|tpParams|activationThreshold_16.modelParams|tpParams|pamLength_4.modelParams|sensorParams|encoders|sine:n_487.modelParams|spParams|synPermInactiveDec_0.020020904585,  400,  0.0852899932812,  12,  16,  4,  487,  0.020020904585,  0.0748433154468,  11.7308291397, 
1062,  6832,  completed,  killed,  2015-10-16 10:17:48,  2015-10-16 10:17:52,  4,  modelParams|clParams|alpha_0.0736537396775.modelParams|tpParams|minThreshold_11.modelParams|tpParams|activationThreshold_15.modelParams|tpParams|pamLength_4.modelParams|sensorParams|encoders|sine:n_441.modelParams|spParams|synPermInactiveDec_0.030295901726,  300,  0.0736537396775,  11,  15,  4,  441,  0.030295901726,  0.0734431135333,  11.5017467443, 
1062,  6833,  completed,  killed,  2015-10-16 10:17:50,  2015-10-16 10:17:52,  2,  modelParams|clParams|alpha_0.0793538755425.modelParams|tpParams|minThreshold_11.modelParams|tpParams|activationThreshold_15.modelParams|tpParams|pamLength_4.modelParams|sensorParams|encoders|sine:n_475.modelParams|spParams|synPermInactiveDec_0.029383614256,  50,  0.0793538755425,  11,  15,  4,  475,  0.029383614256,  0.0599384190774,  9.22983945031, 
